   1               		.file	"main.c"
   2               	__SREG__ = 0x3f
   3               	__SP_H__ = 0x3e
   4               	__SP_L__ = 0x3d
   5               	__CCP__  = 0x34
   6               	__tmp_reg__ = 0
   7               	__zero_reg__ = 1
  15               	.Ltext0:
  16               	.global	unit
  18               	unit:
  19               	.LFB7:
  20               	.LM1:
  21               	.LVL0:
  22               	/* prologue: function */
  23               	/* frame size = 0 */
  24               	.LM2:
  25 0000 6623      		tst r22
  26 0002 01F4      		brne .L2
  27               	.LM3:
  28 0004 8230      		cpi r24,lo8(2)
  29 0006 01F0      		breq .L5
  30 0008 8330      		cpi r24,lo8(3)
  31 000a 00F4      		brsh .L8
  32 000c 8130      		cpi r24,lo8(1)
  33 000e 01F4      		brne .L3
  34 0010 00C0      		rjmp .L15
  35               	.L8:
  36 0012 8330      		cpi r24,lo8(3)
  37 0014 01F0      		breq .L6
  38 0016 8430      		cpi r24,lo8(4)
  39 0018 01F4      		brne .L3
  40 001a 00C0      		rjmp .L16
  41               	.L15:
  42               	.LM4:
  43 001c 709A      		sbi 46-32,0
  44               	.LM5:
  45 001e 4098      		cbi 40-32,0
  46 0020 00C0      		rjmp .L3
  47               	.L5:
  48               	.LM6:
  49 0022 719A      		sbi 46-32,1
  50               	.LM7:
  51 0024 4198      		cbi 40-32,1
  52 0026 00C0      		rjmp .L3
  53               	.L6:
  54               	.LM8:
  55 0028 729A      		sbi 46-32,2
  56               	.LM9:
  57 002a 4298      		cbi 40-32,2
  58 002c 00C0      		rjmp .L3
  59               	.L16:
  60               	.LM10:
  61 002e 739A      		sbi 46-32,3
  62               	.LM11:
  63 0030 4398      		cbi 40-32,3
  64 0032 00C0      		rjmp .L3
  65               	.L2:
  66               	.LM12:
  67 0034 6130      		cpi r22,lo8(1)
  68 0036 01F4      		brne .L3
  69               	.LM13:
  70 0038 8230      		cpi r24,lo8(2)
  71 003a 01F0      		breq .L10
  72 003c 8330      		cpi r24,lo8(3)
  73 003e 00F4      		brsh .L13
  74 0040 8130      		cpi r24,lo8(1)
  75 0042 01F4      		brne .L3
  76 0044 00C0      		rjmp .L17
  77               	.L13:
  78 0046 8330      		cpi r24,lo8(3)
  79 0048 01F0      		breq .L11
  80 004a 8430      		cpi r24,lo8(4)
  81 004c 01F4      		brne .L3
  82 004e 00C0      		rjmp .L18
  83               	.L17:
  84               	.LM14:
  85 0050 709A      		sbi 46-32,0
  86               	.LM15:
  87 0052 409A      		sbi 40-32,0
  88 0054 00C0      		rjmp .L3
  89               	.L10:
  90               	.LM16:
  91 0056 719A      		sbi 46-32,1
  92               	.LM17:
  93 0058 419A      		sbi 40-32,1
  94 005a 00C0      		rjmp .L3
  95               	.L11:
  96               	.LM18:
  97 005c 729A      		sbi 46-32,2
  98               	.LM19:
  99 005e 429A      		sbi 40-32,2
 100 0060 00C0      		rjmp .L3
 101               	.L18:
 102               	.LM20:
 103 0062 739A      		sbi 46-32,3
 104               	.LM21:
 105 0064 439A      		sbi 40-32,3
 106               	.L3:
 107               	.LBB79:
 108               	.LBB80:
 109               	.LBB81:
 110               	.LBB82:
 111               	.LM22:
 112 0066 80ED      		ldi r24,lo8(2000)
 113 0068 97E0      		ldi r25,hi8(2000)
 114               	.LVL1:
 115               	/* #APP */
 116               	 ;  105 "c:/winavr-20100110/lib/gcc/../../avr/include/util/delay_basic.h" 1
 117 006a 0197      		1: sbiw r24,1
 118 006c 01F4      		brne 1b
 119               	 ;  0 "" 2
 120               	/* #NOAPP */
 121               	.LBE82:
 122               	.LBE81:
 123               	.LBE80:
 124               	.LBE79:
 125               	.LM23:
 126 006e 8EB1      		in r24,46-32
 127               	.LVL2:
 128 0070 807F      		andi r24,lo8(-16)
 129 0072 8EB9      		out 46-32,r24
 130               	/* epilogue start */
 131               	.LM24:
 132 0074 0895      		ret
 133               	.LFE7:
 135               	.global	segment
 137               	segment:
 138               	.LFB8:
 139               	.LM25:
 140               	.LVL3:
 141               	/* prologue: function */
 142               	/* frame size = 0 */
 143               	.LM26:
 144 0076 6623      		tst r22
 145 0078 01F4      		brne .L20
 146               	.LM27:
 147 007a 5998      		cbi 43-32,1
 148 007c 00C0      		rjmp .L21
 149               	.L20:
 150               	.LM28:
 151 007e 6130      		cpi r22,lo8(1)
 152 0080 01F4      		brne .L21
 153               	.LM29:
 154 0082 5898      		cbi 43-32,0
 155               	.L21:
 156               	.LBB83:
 157               	.LBB84:
 158               	.LBB85:
 159               	.LBB86:
 160               	.LM30:
 161 0084 E0ED      		ldi r30,lo8(2000)
 162 0086 F7E0      		ldi r31,hi8(2000)
 163               	.LVL4:
 164               	/* #APP */
 165               	 ;  105 "c:/winavr-20100110/lib/gcc/../../avr/include/util/delay_basic.h" 1
 166 0088 3197      		1: sbiw r30,1
 167 008a 01F4      		brne 1b
 168               	 ;  0 "" 2
 169               	/* #NOAPP */
 170               	.LBE86:
 171               	.LBE85:
 172               	.LBE84:
 173               	.LBE83:
 174               	.LM31:
 175 008c E82F      		mov r30,r24
 176               	.LVL5:
 177 008e F0E0      		ldi r31,lo8(0)
 178               	.LVL6:
 179 0090 E830      		cpi r30,8
 180 0092 F105      		cpc r31,__zero_reg__
 181 0094 00F4      		brsh .L22
 182               	.LVL7:
 183 0096 E050      		subi r30,lo8(-(gs(.L31)))
 184 0098 F040      		sbci r31,hi8(-(gs(.L31)))
 185               	.LVL8:
 186 009a 0994      		ijmp
 187               	.LVL9:
 188               		.data
 189               		.section .progmem.gcc_sw_table, "ax", @progbits
 190               		.p2align 1
 191               	.L31:
 192               		.data
 193               		.section .progmem.gcc_sw_table, "ax", @progbits
 194               		.p2align 1
 195 0000 00C0      		rjmp .L23
 196 0002 00C0      		rjmp .L24
 197 0004 00C0      		rjmp .L25
 198 0006 00C0      		rjmp .L26
 199 0008 00C0      		rjmp .L27
 200 000a 00C0      		rjmp .L28
 201 000c 00C0      		rjmp .L29
 202 000e 00C0      		rjmp .L30
 203               		.text
 204               	.L23:
 205               	.LBB87:
 206               	.LBB88:
 207               	.LM32:
 208 009c 1EBC      		out 78-32,__zero_reg__
 209               	.L32:
 210               	.LM33:
 211 009e 0DB4      		in __tmp_reg__,77-32
 212 00a0 07FE      		sbrs __tmp_reg__,7
 213 00a2 00C0      		rjmp .L32
 214 00a4 00C0      		rjmp .L22
 215               	.L24:
 216               	.LBE88:
 217               	.LBE87:
 218               	.LBB89:
 219               	.LBB90:
 220               	.LM34:
 221 00a6 81E0      		ldi r24,lo8(1)
 222 00a8 8EBD      		out 78-32,r24
 223               	.L33:
 224               	.LM35:
 225 00aa 0DB4      		in __tmp_reg__,77-32
 226 00ac 07FE      		sbrs __tmp_reg__,7
 227 00ae 00C0      		rjmp .L33
 228 00b0 00C0      		rjmp .L22
 229               	.L25:
 230               	.LBE90:
 231               	.LBE89:
 232               	.LBB91:
 233               	.LBB92:
 234               	.LM36:
 235 00b2 82E0      		ldi r24,lo8(2)
 236 00b4 8EBD      		out 78-32,r24
 237               	.L34:
 238               	.LM37:
 239 00b6 0DB4      		in __tmp_reg__,77-32
 240 00b8 07FE      		sbrs __tmp_reg__,7
 241 00ba 00C0      		rjmp .L34
 242 00bc 00C0      		rjmp .L22
 243               	.L26:
 244               	.LBE92:
 245               	.LBE91:
 246               	.LBB93:
 247               	.LBB94:
 248               	.LM38:
 249 00be 84E0      		ldi r24,lo8(4)
 250 00c0 8EBD      		out 78-32,r24
 251               	.L35:
 252               	.LM39:
 253 00c2 0DB4      		in __tmp_reg__,77-32
 254 00c4 07FE      		sbrs __tmp_reg__,7
 255 00c6 00C0      		rjmp .L35
 256 00c8 00C0      		rjmp .L22
 257               	.L27:
 258               	.LBE94:
 259               	.LBE93:
 260               	.LBB95:
 261               	.LBB96:
 262               	.LM40:
 263 00ca 88E0      		ldi r24,lo8(8)
 264 00cc 8EBD      		out 78-32,r24
 265               	.L36:
 266               	.LM41:
 267 00ce 0DB4      		in __tmp_reg__,77-32
 268 00d0 07FE      		sbrs __tmp_reg__,7
 269 00d2 00C0      		rjmp .L36
 270 00d4 00C0      		rjmp .L22
 271               	.L28:
 272               	.LBE96:
 273               	.LBE95:
 274               	.LBB97:
 275               	.LBB98:
 276               	.LM42:
 277 00d6 80E1      		ldi r24,lo8(16)
 278 00d8 8EBD      		out 78-32,r24
 279               	.L37:
 280               	.LM43:
 281 00da 0DB4      		in __tmp_reg__,77-32
 282 00dc 07FE      		sbrs __tmp_reg__,7
 283 00de 00C0      		rjmp .L37
 284 00e0 00C0      		rjmp .L22
 285               	.L29:
 286               	.LBE98:
 287               	.LBE97:
 288               	.LBB99:
 289               	.LBB100:
 290               	.LM44:
 291 00e2 80E2      		ldi r24,lo8(32)
 292 00e4 8EBD      		out 78-32,r24
 293               	.L38:
 294               	.LM45:
 295 00e6 0DB4      		in __tmp_reg__,77-32
 296 00e8 07FE      		sbrs __tmp_reg__,7
 297 00ea 00C0      		rjmp .L38
 298 00ec 00C0      		rjmp .L22
 299               	.L30:
 300               	.LBE100:
 301               	.LBE99:
 302               	.LBB101:
 303               	.LBB102:
 304               	.LM46:
 305 00ee 80E4      		ldi r24,lo8(64)
 306 00f0 8EBD      		out 78-32,r24
 307               	.L39:
 308               	.LM47:
 309 00f2 0DB4      		in __tmp_reg__,77-32
 310 00f4 07FE      		sbrs __tmp_reg__,7
 311 00f6 00C0      		rjmp .L39
 312               	.LVL10:
 313               	.L22:
 314               	.LBE102:
 315               	.LBE101:
 316               	.LBB103:
 317               	.LBB104:
 318               	.LBB105:
 319               	.LBB106:
 320               	.LM48:
 321 00f8 80ED      		ldi r24,lo8(2000)
 322 00fa 97E0      		ldi r25,hi8(2000)
 323               	.LVL11:
 324               	/* #APP */
 325               	 ;  105 "c:/winavr-20100110/lib/gcc/../../avr/include/util/delay_basic.h" 1
 326 00fc 0197      		1: sbiw r24,1
 327 00fe 01F4      		brne 1b
 328               	 ;  0 "" 2
 329               	/* #NOAPP */
 330               	.LBE106:
 331               	.LBE105:
 332               	.LBE104:
 333               	.LBE103:
 334               	.LM49:
 335 0100 8BB1      		in r24,43-32
 336               	.LVL12:
 337 0102 8360      		ori r24,lo8(3)
 338 0104 8BB9      		out 43-32,r24
 339               	/* epilogue start */
 340               	.LM50:
 341 0106 0895      		ret
 342               	.LFE8:
 344               	.global	display_segment
 346               	display_segment:
 347               	.LFB9:
 348               	.LM51:
 349               	.LVL13:
 350 0108 1F93      		push r17
 351               	/* prologue: function */
 352               	/* frame size = 0 */
 353 010a 162F      		mov r17,r22
 354               	.LBB107:
 355               	.LBB108:
 356               	.LBB109:
 357               	.LBB110:
 358               	.LM52:
 359 010c E0ED      		ldi r30,lo8(2000)
 360 010e F7E0      		ldi r31,hi8(2000)
 361               	.LVL14:
 362               	/* #APP */
 363               	 ;  105 "c:/winavr-20100110/lib/gcc/../../avr/include/util/delay_basic.h" 1
 364 0110 3197      		1: sbiw r30,1
 365 0112 01F4      		brne 1b
 366               	 ;  0 "" 2
 367               	/* #NOAPP */
 368               	.LBE110:
 369               	.LBE109:
 370               	.LBE108:
 371               	.LBE107:
 372               	.LM53:
 373 0114 4130      		cpi r20,lo8(1)
 374 0116 01F4      		brne .L50
 375               	.LVL15:
 376               	.LM54:
 377 0118 61E0      		ldi r22,lo8(1)
 378 011a 00D0      		rcall segment
 379               	.LVL16:
 380               	.LM55:
 381 011c 812F      		mov r24,r17
 382 011e 60E0      		ldi r22,lo8(0)
 383 0120 00D0      		rcall unit
 384               	.LM56:
 385 0122 80E0      		ldi r24,lo8(0)
 386 0124 61E0      		ldi r22,lo8(1)
 387 0126 00C0      		rjmp .L53
 388               	.LVL17:
 389               	.L50:
 390               	.LM57:
 391 0128 4423      		tst r20
 392 012a 01F4      		brne .L52
 393               	.LM58:
 394 012c 60E0      		ldi r22,lo8(0)
 395 012e 00D0      		rcall segment
 396               	.LVL18:
 397               	.LM59:
 398 0130 812F      		mov r24,r17
 399 0132 61E0      		ldi r22,lo8(1)
 400 0134 00D0      		rcall unit
 401               	.LM60:
 402 0136 80E0      		ldi r24,lo8(0)
 403 0138 60E0      		ldi r22,lo8(0)
 404               	.L53:
 405 013a 00D0      		rcall segment
 406               	.LVL19:
 407               	.L52:
 408               	/* epilogue start */
 409               	.LM61:
 410 013c 1F91      		pop r17
 411               	.LVL20:
 412 013e 0895      		ret
 413               	.LFE9:
 415               	.global	display_number
 417               	display_number:
 418               	.LFB10:
 419               	.LM62:
 420               	.LVL21:
 421 0140 1F93      		push r17
 422               	/* prologue: function */
 423               	/* frame size = 0 */
 424 0142 182F      		mov r17,r24
 425               	.LM63:
 426 0144 E62F      		mov r30,r22
 427 0146 F0E0      		ldi r31,lo8(0)
 428               	.LVL22:
 429 0148 EA30      		cpi r30,10
 430 014a F105      		cpc r31,__zero_reg__
 431 014c 00F0      		brlo .+2
 432 014e 00C0      		rjmp .L67
 433               	.LVL23:
 434 0150 E050      		subi r30,lo8(-(gs(.L66)))
 435 0152 F040      		sbci r31,hi8(-(gs(.L66)))
 436               	.LVL24:
 437 0154 0994      		ijmp
 438               	.LVL25:
 439               		.data
 440               		.section .progmem.gcc_sw_table, "ax", @progbits
 441               		.p2align 1
 442               	.L66:
 443               		.data
 444               		.section .progmem.gcc_sw_table, "ax", @progbits
 445               		.p2align 1
 446 0010 00C0      		rjmp .L56
 447 0012 00C0      		rjmp .L73
 448 0014 00C0      		rjmp .L58
 449 0016 00C0      		rjmp .L75
 450 0018 00C0      		rjmp .L60
 451 001a 00C0      		rjmp .L72
 452 001c 00C0      		rjmp .L62
 453 001e 00C0      		rjmp .L68
 454 0020 00C0      		rjmp .L64
 455 0022 00C0      		rjmp .L65
 456               		.text
 457               	.L56:
 458               	.LM64:
 459 0156 81E0      		ldi r24,lo8(1)
 460 0158 612F      		mov r22,r17
 461 015a 41E0      		ldi r20,lo8(1)
 462 015c 00D0      		rcall display_segment
 463               	.LVL26:
 464               	.LM65:
 465 015e 82E0      		ldi r24,lo8(2)
 466 0160 00C0      		rjmp .L76
 467               	.LVL27:
 468               	.L58:
 469               	.LM66:
 470 0162 81E0      		ldi r24,lo8(1)
 471 0164 612F      		mov r22,r17
 472 0166 41E0      		ldi r20,lo8(1)
 473 0168 00D0      		rcall display_segment
 474               	.LVL28:
 475               	.LM67:
 476 016a 83E0      		ldi r24,lo8(3)
 477 016c 612F      		mov r22,r17
 478 016e 41E0      		ldi r20,lo8(1)
 479 0170 00D0      		rcall display_segment
 480               	.LM68:
 481 0172 84E0      		ldi r24,lo8(4)
 482 0174 612F      		mov r22,r17
 483 0176 41E0      		ldi r20,lo8(1)
 484 0178 00D0      		rcall display_segment
 485               	.LM69:
 486 017a 85E0      		ldi r24,lo8(5)
 487 017c 00C0      		rjmp .L74
 488               	.LVL29:
 489               	.L60:
 490               	.LM70:
 491 017e 82E0      		ldi r24,lo8(2)
 492 0180 612F      		mov r22,r17
 493 0182 41E0      		ldi r20,lo8(1)
 494 0184 00D0      		rcall display_segment
 495               	.LVL30:
 496               	.LM71:
 497 0186 83E0      		ldi r24,lo8(3)
 498 0188 612F      		mov r22,r17
 499 018a 41E0      		ldi r20,lo8(1)
 500 018c 00D0      		rcall display_segment
 501               	.LVL31:
 502               	.L73:
 503               	.LM72:
 504 018e 85E0      		ldi r24,lo8(5)
 505 0190 612F      		mov r22,r17
 506 0192 41E0      		ldi r20,lo8(1)
 507 0194 00D0      		rcall display_segment
 508               	.LVL32:
 509               	.LM73:
 510 0196 86E0      		ldi r24,lo8(6)
 511 0198 00C0      		rjmp .L70
 512               	.LVL33:
 513               	.L62:
 514               	.LM74:
 515 019a 81E0      		ldi r24,lo8(1)
 516 019c 612F      		mov r22,r17
 517 019e 41E0      		ldi r20,lo8(1)
 518 01a0 00D0      		rcall display_segment
 519               	.LVL34:
 520               	.L72:
 521               	.LM75:
 522 01a2 82E0      		ldi r24,lo8(2)
 523 01a4 612F      		mov r22,r17
 524 01a6 41E0      		ldi r20,lo8(1)
 525 01a8 00D0      		rcall display_segment
 526               	.LVL35:
 527               	.LM76:
 528 01aa 83E0      		ldi r24,lo8(3)
 529 01ac 612F      		mov r22,r17
 530 01ae 41E0      		ldi r20,lo8(1)
 531 01b0 00D0      		rcall display_segment
 532               	.LM77:
 533 01b2 84E0      		ldi r24,lo8(4)
 534 01b4 00C0      		rjmp .L69
 535               	.LVL36:
 536               	.L64:
 537               	.LM78:
 538 01b6 81E0      		ldi r24,lo8(1)
 539 01b8 612F      		mov r22,r17
 540 01ba 41E0      		ldi r20,lo8(1)
 541 01bc 00D0      		rcall display_segment
 542               	.LVL37:
 543               	.LM79:
 544 01be 82E0      		ldi r24,lo8(2)
 545 01c0 612F      		mov r22,r17
 546 01c2 41E0      		ldi r20,lo8(1)
 547 01c4 00D0      		rcall display_segment
 548               	.LVL38:
 549               	.L75:
 550               	.LM80:
 551 01c6 83E0      		ldi r24,lo8(3)
 552               	.L76:
 553 01c8 612F      		mov r22,r17
 554 01ca 41E0      		ldi r20,lo8(1)
 555 01cc 00D0      		rcall display_segment
 556               	.LVL39:
 557               	.LM81:
 558 01ce 84E0      		ldi r24,lo8(4)
 559 01d0 00C0      		rjmp .L71
 560               	.LVL40:
 561               	.L65:
 562               	.LM82:
 563 01d2 82E0      		ldi r24,lo8(2)
 564 01d4 612F      		mov r22,r17
 565 01d6 41E0      		ldi r20,lo8(1)
 566 01d8 00D0      		rcall display_segment
 567               	.LVL41:
 568               	.LM83:
 569 01da 83E0      		ldi r24,lo8(3)
 570               	.L71:
 571 01dc 612F      		mov r22,r17
 572 01de 41E0      		ldi r20,lo8(1)
 573 01e0 00D0      		rcall display_segment
 574               	.LVL42:
 575               	.L68:
 576               	.LM84:
 577 01e2 85E0      		ldi r24,lo8(5)
 578               	.L69:
 579 01e4 612F      		mov r22,r17
 580 01e6 41E0      		ldi r20,lo8(1)
 581 01e8 00D0      		rcall display_segment
 582               	.LVL43:
 583               	.LM85:
 584 01ea 86E0      		ldi r24,lo8(6)
 585               	.L74:
 586 01ec 612F      		mov r22,r17
 587 01ee 41E0      		ldi r20,lo8(1)
 588 01f0 00D0      		rcall display_segment
 589               	.LM86:
 590 01f2 87E0      		ldi r24,lo8(7)
 591               	.L70:
 592 01f4 612F      		mov r22,r17
 593 01f6 41E0      		ldi r20,lo8(1)
 594 01f8 00D0      		rcall display_segment
 595               	.LVL44:
 596               	.L67:
 597               	/* epilogue start */
 598               	.LM87:
 599 01fa 1F91      		pop r17
 600               	.LVL45:
 601 01fc 0895      		ret
 602               	.LFE10:
 604               	.global	clear_unit
 606               	clear_unit:
 607               	.LFB11:
 608               	.LM88:
 609               	.LVL46:
 610 01fe 0F93      		push r16
 611 0200 1F93      		push r17
 612 0202 CF93      		push r28
 613 0204 DF93      		push r29
 614               	/* prologue: function */
 615               	/* frame size = 0 */
 616 0206 082F      		mov r16,r24
 617               	.LM89:
 618 0208 11E0      		ldi r17,lo8(1)
 619               	.LBB111:
 620               	.LBB112:
 621               	.LBB113:
 622               	.LBB114:
 623               	.LBB115:
 624               	.LM90:
 625 020a C8EC      		ldi r28,lo8(200)
 626 020c D0E0      		ldi r29,hi8(200)
 627               	.LVL47:
 628               	.L79:
 629               	.LBE115:
 630               	.LBE114:
 631               	.LBE113:
 632               	.LBE112:
 633               	.LM91:
 634 020e 812F      		mov r24,r17
 635               	.LVL48:
 636 0210 602F      		mov r22,r16
 637 0212 40E0      		ldi r20,lo8(0)
 638 0214 00D0      		rcall display_segment
 639               	.LVL49:
 640 0216 88EE      		ldi r24,lo8(1000)
 641 0218 93E0      		ldi r25,hi8(1000)
 642               	.LVL50:
 643               	.L78:
 644               	.LBB119:
 645               	.LBB118:
 646               	.LBB117:
 647               	.LBB116:
 648               	.LM92:
 649 021a FE01      		movw r30,r28
 650               	.LVL51:
 651               	/* #APP */
 652               	 ;  105 "c:/winavr-20100110/lib/gcc/../../avr/include/util/delay_basic.h" 1
 653 021c 3197      		1: sbiw r30,1
 654 021e 01F4      		brne 1b
 655               	 ;  0 "" 2
 656               	/* #NOAPP */
 657               	.LBE116:
 658               	.LBE117:
 659               	.LM93:
 660 0220 0197      		sbiw r24,1
 661               	.LM94:
 662 0222 01F4      		brne .L78
 663 0224 1F5F      		subi r17,lo8(-(1))
 664               	.LBE118:
 665               	.LBE119:
 666               	.LM95:
 667 0226 1830      		cpi r17,lo8(8)
 668 0228 01F4      		brne .L79
 669               	/* epilogue start */
 670               	.LBE111:
 671               	.LM96:
 672 022a DF91      		pop r29
 673 022c CF91      		pop r28
 674 022e 1F91      		pop r17
 675 0230 0F91      		pop r16
 676               	.LVL52:
 677 0232 0895      		ret
 678               	.LFE11:
 680               	.global	clear_all
 682               	clear_all:
 683               	.LFB12:
 684               	.LM97:
 685 0234 1F93      		push r17
 686               	/* prologue: function */
 687               	/* frame size = 0 */
 688               	.LM98:
 689 0236 11E0      		ldi r17,lo8(1)
 690               	.L84:
 691               	.LBB120:
 692               	.LM99:
 693 0238 812F      		mov r24,r17
 694 023a 00D0      		rcall clear_unit
 695 023c 1F5F      		subi r17,lo8(-(1))
 696               	.LM100:
 697 023e 1530      		cpi r17,lo8(5)
 698 0240 01F4      		brne .L84
 699               	/* epilogue start */
 700               	.LBE120:
 701               	.LM101:
 702 0242 1F91      		pop r17
 703 0244 0895      		ret
 704               	.LFE12:
 706               	.global	main
 708               	main:
 709               	.LFB6:
 710               	.LM102:
 711 0246 EF92      		push r14
 712 0248 FF92      		push r15
 713 024a 1F93      		push r17
 714 024c CF93      		push r28
 715 024e DF93      		push r29
 716               	/* prologue: function */
 717               	/* frame size = 0 */
 718               	.LM103:
 719 0250 8DB1      		in r24,45-32
 720 0252 8F60      		ori r24,lo8(15)
 721 0254 8DB9      		out 45-32,r24
 722               	.LM104:
 723 0256 87B1      		in r24,39-32
 724 0258 8F60      		ori r24,lo8(15)
 725 025a 87B9      		out 39-32,r24
 726               	.LM105:
 727 025c 8AB1      		in r24,42-32
 728 025e 8360      		ori r24,lo8(3)
 729 0260 8AB9      		out 42-32,r24
 730               	.LM106:
 731 0262 8BB1      		in r24,43-32
 732 0264 8360      		ori r24,lo8(3)
 733 0266 8BB9      		out 43-32,r24
 734               	.LM107:
 735 0268 84B1      		in r24,36-32
 736 026a 8C62      		ori r24,lo8(44)
 737 026c 84B9      		out 36-32,r24
 738               	.LM108:
 739 026e 8CB5      		in r24,76-32
 740 0270 8465      		ori r24,lo8(84)
 741 0272 8CBD      		out 76-32,r24
 742               	.LM109:
 743 0274 8DB5      		in r24,77-32
 744 0276 8160      		ori r24,lo8(1)
 745 0278 8DBD      		out 77-32,r24
 746               	.LM110:
 747 027a 85B1      		in r24,37-32
 748 027c 876C      		ori r24,lo8(-57)
 749 027e 85B9      		out 37-32,r24
 750               	.LM111:
 751 0280 479A      		sbi 40-32,7
 752               	.LM112:
 753 0282 8BB1      		in r24,43-32
 754 0284 806F      		ori r24,lo8(-16)
 755 0286 8BB9      		out 43-32,r24
 756 0288 80E1      		ldi r24,lo8(10000)
 757 028a 97E2      		ldi r25,hi8(10000)
 758               	.LVL53:
 759               	.LBB121:
 760               	.LBB122:
 761               	.LBB123:
 762               	.LBB124:
 763               	.LM113:
 764 028c 28EC      		ldi r18,lo8(200)
 765 028e 30E0      		ldi r19,hi8(200)
 766               	.L88:
 767 0290 F901      		movw r30,r18
 768               	.LVL54:
 769               	/* #APP */
 770               	 ;  105 "c:/winavr-20100110/lib/gcc/../../avr/include/util/delay_basic.h" 1
 771 0292 3197      		1: sbiw r30,1
 772 0294 01F4      		brne 1b
 773               	 ;  0 "" 2
 774               	/* #NOAPP */
 775               	.LBE124:
 776               	.LBE123:
 777               	.LM114:
 778 0296 0197      		sbiw r24,1
 779               	.LM115:
 780 0298 01F4      		brne .L88
 781               	.LBE122:
 782               	.LBE121:
 783               	.LM116:
 784 029a 00D0      		rcall clear_all
 785               	.LVL55:
 786 029c 80E1      		ldi r24,lo8(10000)
 787 029e 97E2      		ldi r25,hi8(10000)
 788               	.LVL56:
 789               	.LBB125:
 790               	.LBB126:
 791               	.LBB127:
 792               	.LBB128:
 793               	.LM117:
 794 02a0 28EC      		ldi r18,lo8(200)
 795 02a2 30E0      		ldi r19,hi8(200)
 796               	.L89:
 797 02a4 F901      		movw r30,r18
 798               	.LVL57:
 799               	/* #APP */
 800               	 ;  105 "c:/winavr-20100110/lib/gcc/../../avr/include/util/delay_basic.h" 1
 801 02a6 3197      		1: sbiw r30,1
 802 02a8 01F4      		brne 1b
 803               	 ;  0 "" 2
 804               	/* #NOAPP */
 805               	.LBE128:
 806               	.LBE127:
 807               	.LM118:
 808 02aa 0197      		sbiw r24,1
 809               	.LM119:
 810 02ac 01F4      		brne .L89
 811 02ae C4E0      		ldi r28,lo8(4)
 812 02b0 D0E0      		ldi r29,hi8(4)
 813               	.LVL58:
 814               	.LBE126:
 815               	.LBE125:
 816               	.LBB130:
 817               	.LBB131:
 818               	.LBB132:
 819               	.LBB133:
 820               	.LM120:
 821 02b2 88EC      		ldi r24,lo8(200)
 822 02b4 E82E      		mov r14,r24
 823 02b6 F12C      		mov r15,__zero_reg__
 824               	.LVL59:
 825 02b8 00C0      		rjmp .L101
 826               	.LVL60:
 827               	.L93:
 828               	.LBE133:
 829               	.LBE132:
 830               	.LBE131:
 831               	.LBE130:
 832               	.LBB137:
 833               	.LBB129:
 834               	.LM121:
 835 02ba 10E0      		ldi r17,lo8(0)
 836               	.L92:
 837               	.LBE129:
 838               	.LBE137:
 839               	.LBB138:
 840               	.LBB139:
 841               	.LM122:
 842 02bc 8C2F      		mov r24,r28
 843               	.LVL61:
 844 02be 00D0      		rcall clear_unit
 845               	.LVL62:
 846               	.LM123:
 847 02c0 8C2F      		mov r24,r28
 848 02c2 612F      		mov r22,r17
 849 02c4 00D0      		rcall display_number
 850 02c6 80E1      		ldi r24,lo8(10000)
 851 02c8 97E2      		ldi r25,hi8(10000)
 852               	.LVL63:
 853               	.L91:
 854               	.LBB140:
 855               	.LBB141:
 856               	.LBB142:
 857               	.LBB143:
 858               	.LM124:
 859 02ca F701      		movw r30,r14
 860               	.LVL64:
 861               	/* #APP */
 862               	 ;  105 "c:/winavr-20100110/lib/gcc/../../avr/include/util/delay_basic.h" 1
 863 02cc 3197      		1: sbiw r30,1
 864 02ce 01F4      		brne 1b
 865               	 ;  0 "" 2
 866               	/* #NOAPP */
 867               	.LBE143:
 868               	.LBE142:
 869               	.LM125:
 870 02d0 0197      		sbiw r24,1
 871               	.LM126:
 872 02d2 01F4      		brne .L91
 873 02d4 1F5F      		subi r17,lo8(-(1))
 874               	.LBE141:
 875               	.LBE140:
 876               	.LM127:
 877 02d6 1A30      		cpi r17,lo8(10)
 878 02d8 01F4      		brne .L92
 879               	.LBE139:
 880               	.LM128:
 881 02da 2197      		sbiw r28,1
 882               	.LVL65:
 883               	.L101:
 884 02dc 1C16      		cp __zero_reg__,r28
 885 02de 1D06      		cpc __zero_reg__,r29
 886 02e0 04F0      		brlt .L93
 887               	.LBE138:
 888               	.LM129:
 889 02e2 00D0      		rcall clear_all
 890               	.LVL66:
 891 02e4 80E1      		ldi r24,lo8(10000)
 892 02e6 97E2      		ldi r25,hi8(10000)
 893               	.LVL67:
 894               	.L94:
 895               	.LBB144:
 896               	.LBB136:
 897               	.LBB135:
 898               	.LBB134:
 899               	.LM130:
 900 02e8 F701      		movw r30,r14
 901               	.LVL68:
 902               	/* #APP */
 903               	 ;  105 "c:/winavr-20100110/lib/gcc/../../avr/include/util/delay_basic.h" 1
 904 02ea 3197      		1: sbiw r30,1
 905 02ec 01F4      		brne 1b
 906               	 ;  0 "" 2
 907               	/* #NOAPP */
 908               	.LBE134:
 909               	.LBE135:
 910               	.LM131:
 911 02ee 0197      		sbiw r24,1
 912               	.LM132:
 913 02f0 01F4      		brne .L94
 914 02f2 C4E0      		ldi r28,lo8(4)
 915 02f4 D0E0      		ldi r29,hi8(4)
 916 02f6 00C0      		rjmp .L93
 917               	.LBE136:
 918               	.LBE144:
 919               	.LFE6:
 921               	.global	SPI_MasterTransmit
 923               	SPI_MasterTransmit:
 924               	.LFB13:
 925               	.LM133:
 926               	.LVL69:
 927               	/* prologue: function */
 928               	/* frame size = 0 */
 929               	.LM134:
 930 02f8 8EBD      		out 78-32,r24
 931               	.L103:
 932               	.LM135:
 933 02fa 0DB4      		in __tmp_reg__,77-32
 934 02fc 07FE      		sbrs __tmp_reg__,7
 935 02fe 00C0      		rjmp .L103
 936               	/* epilogue start */
 937               	.LM136:
 938 0300 0895      		ret
 939               	.LFE13:
 941               	.global	I2C_MasterInit
 943               	I2C_MasterInit:
 944               	.LFB14:
 945               	.LM137:
 946               	/* prologue: function */
 947               	/* frame size = 0 */
 948               	.LM138:
 949 0302 8AE2      		ldi r24,lo8(42)
 950 0304 8093 B800 		sts 184,r24
 951               	.LM139:
 952 0308 ECEB      		ldi r30,lo8(188)
 953 030a F0E0      		ldi r31,hi8(188)
 954 030c 8081      		ld r24,Z
 955 030e 8460      		ori r24,lo8(4)
 956 0310 8083      		st Z,r24
 957               	/* epilogue start */
 958               	.LM140:
 959 0312 0895      		ret
 960               	.LFE14:
 1050               	.Letext0:
DEFINED SYMBOLS
                            *ABS*:00000000 main.c
C:\Users\andia\AppData\Local\Temp/ccMdXkyz.s:2      *ABS*:0000003f __SREG__
C:\Users\andia\AppData\Local\Temp/ccMdXkyz.s:3      *ABS*:0000003e __SP_H__
C:\Users\andia\AppData\Local\Temp/ccMdXkyz.s:4      *ABS*:0000003d __SP_L__
C:\Users\andia\AppData\Local\Temp/ccMdXkyz.s:5      *ABS*:00000034 __CCP__
C:\Users\andia\AppData\Local\Temp/ccMdXkyz.s:6      *ABS*:00000000 __tmp_reg__
C:\Users\andia\AppData\Local\Temp/ccMdXkyz.s:7      *ABS*:00000001 __zero_reg__
C:\Users\andia\AppData\Local\Temp/ccMdXkyz.s:18     .text:00000000 unit
C:\Users\andia\AppData\Local\Temp/ccMdXkyz.s:137    .text:00000076 segment
C:\Users\andia\AppData\Local\Temp/ccMdXkyz.s:346    .text:00000108 display_segment
C:\Users\andia\AppData\Local\Temp/ccMdXkyz.s:417    .text:00000140 display_number
C:\Users\andia\AppData\Local\Temp/ccMdXkyz.s:606    .text:000001fe clear_unit
C:\Users\andia\AppData\Local\Temp/ccMdXkyz.s:682    .text:00000234 clear_all
C:\Users\andia\AppData\Local\Temp/ccMdXkyz.s:708    .text:00000246 main
C:\Users\andia\AppData\Local\Temp/ccMdXkyz.s:923    .text:000002f8 SPI_MasterTransmit
C:\Users\andia\AppData\Local\Temp/ccMdXkyz.s:943    .text:00000302 I2C_MasterInit

UNDEFINED SYMBOLS
__do_copy_data
